{
  "template": "@src/templates/home/index.twig",
  "route": "{slug}",
  "rows": [
    {
      "slug": "datenschutz",
      "data": {
        "language": "de",
        "title": "Datenschutz",
        "h1": "Datenschutz",
        "meta": {
          "description": "Meta Beschreibung auf Datenschutz"
        }
      }
    }
  ]
}
