{
  "template": "@src/templates/home/index.twig",
  "route": "en/{slug}",
  "rows": [
    {
      "slug": "privacy",
      "data": {
        "language": "en",
        "title": "Privacy",
        "h1": "Privacy",
        "meta": {
          "description": "Meta description on privacy page"
        }
      }
    }
  ]
}
